{
    "swagger": "2.0",
    "info": {
        "contact": {
            "name": "API Support",
            "url": "https://www.ariefsn.dev",
            "email": "ayiexz22@gmail.com"
        },
        "version": "3.0"
    },
    "basePath": "/",
    "paths": {
        "/": {
            "get": {
                "description": "Ping storage service",
                "consumes": [
                    "application/json"
                ],
                "produces": [
                    "application/json"
                ],
                "tags": [
                    "Root"
                ],
                "summary": "Ping storage service",
                "responses": {
                    "200": {
                        "description": "OK",
                        "schema": {
                            "$ref": "#/definitions/swagger.ResponseSuccessText"
                        }
                    },
                    "400": {
                        "description": "Bad Request",
                        "schema": {
                            "$ref": "#/definitions/swagger.ResponseError"
                        }
                    },
                    "404": {
                        "description": "Bad Request",
                        "schema": {
                            "$ref": "#/definitions/swagger.ResponseError"
                        }
                    },
                    "500": {
                        "description": "Bad Request",
                        "schema": {
                            "$ref": "#/definitions/swagger.ResponseError"
                        }
                    }
                }
            }
        },
        "/delete/{group}/{filename}": {
            "delete": {
                "description": "Delete file from storage",
                "consumes": [
                    "application/json"
                ],
                "produces": [
                    "application/json"
                ],
                "tags": [
                    "Storage"
                ],
                "summary": "Delete from storage",
                "parameters": [
                    {
                        "type": "string",
                        "description": "Bearer Token",
                        "name": "Authorization",
                        "in": "header",
                        "required": true
                    },
                    {
                        "type": "string",
                        "description": "Group storage",
                        "name": "group",
                        "in": "path",
                        "required": true
                    },
                    {
                        "type": "string",
                        "description": "File name",
                        "name": "filename",
                        "in": "path",
                        "required": true
                    }
                ],
                "responses": {
                    "200": {
                        "description": "OK",
                        "schema": {
                            "$ref": "#/definitions/swagger.ResponseSuccessText"
                        }
                    },
                    "400": {
                        "description": "Bad Request",
                        "schema": {
                            "$ref": "#/definitions/swagger.ResponseError"
                        }
                    },
                    "404": {
                        "description": "Bad Request",
                        "schema": {
                            "$ref": "#/definitions/swagger.ResponseError"
                        }
                    },
                    "500": {
                        "description": "Bad Request",
                        "schema": {
                            "$ref": "#/definitions/swagger.ResponseError"
                        }
                    }
                }
            }
        },
        "/file/{group}/{filename}": {
            "get": {
                "description": "View or download file from storage",
                "consumes": [
                    "*/*"
                ],
                "produces": [
                    "*/*"
                ],
                "tags": [
                    "Storage"
                ],
                "summary": "Get file from storage",
                "parameters": [
                    {
                        "type": "string",
                        "description": "Group storage",
                        "name": "group",
                        "in": "path",
                        "required": true
                    },
                    {
                        "type": "string",
                        "description": "File name",
                        "name": "filename",
                        "in": "path",
                        "required": true
                    },
                    {
                        "type": "boolean",
                        "description": "Prompt download",
                        "name": "download",
                        "in": "query"
                    }
                ],
                "responses": {
                    "400": {
                        "description": "Bad Request",
                        "schema": {
                            "$ref": "#/definitions/swagger.ResponseError"
                        }
                    },
                    "404": {
                        "description": "Bad Request",
                        "schema": {
                            "$ref": "#/definitions/swagger.ResponseError"
                        }
                    },
                    "500": {
                        "description": "Bad Request",
                        "schema": {
                            "$ref": "#/definitions/swagger.ResponseError"
                        }
                    }
                }
            }
        },
        "/upload/{group}": {
            "post": {
                "description": "Upload file to storage",
                "consumes": [
                    "multipart/form-data"
                ],
                "produces": [
                    "application/json"
                ],
                "tags": [
                    "Storage"
                ],
                "summary": "Upload to storage",
                "parameters": [
                    {
                        "type": "string",
                        "description": "Bearer Token",
                        "name": "Authorization",
                        "in": "header",
                        "required": true
                    },
                    {
                        "type": "string",
                        "description": "Group storage",
                        "name": "group",
                        "in": "path",
                        "required": true
                    },
                    {
                        "type": "file",
                        "description": "Some file",
                        "name": "file",
                        "in": "formData",
                        "required": true
                    }
                ],
                "responses": {
                    "200": {
                        "description": "OK",
                        "schema": {
                            "$ref": "#/definitions/swagger.ResponseSuccessText"
                        }
                    },
                    "400": {
                        "description": "Bad Request",
                        "schema": {
                            "$ref": "#/definitions/swagger.ResponseError"
                        }
                    },
                    "404": {
                        "description": "Bad Request",
                        "schema": {
                            "$ref": "#/definitions/swagger.ResponseError"
                        }
                    },
                    "500": {
                        "description": "Bad Request",
                        "schema": {
                            "$ref": "#/definitions/swagger.ResponseError"
                        }
                    }
                }
            }
        },
        "/upload/{group}/{filename}": {
            "post": {
                "description": "Upload and rename file to storage",
                "consumes": [
                    "multipart/form-data"
                ],
                "produces": [
                    "application/json"
                ],
                "tags": [
                    "Storage"
                ],
                "summary": "Upload and rename to storage",
                "parameters": [
                    {
                        "type": "string",
                        "description": "Bearer Token",
                        "name": "Authorization",
                        "in": "header",
                        "required": true
                    },
                    {
                        "type": "string",
                        "description": "Group storage",
                        "name": "group",
                        "in": "path",
                        "required": true
                    },
                    {
                        "type": "string",
                        "description": "Rename file",
                        "name": "filename",
                        "in": "path"
                    },
                    {
                        "type": "file",
                        "description": "Some file",
                        "name": "file",
                        "in": "formData",
                        "required": true
                    }
                ],
                "responses": {
                    "200": {
                        "description": "OK",
                        "schema": {
                            "$ref": "#/definitions/swagger.ResponseSuccessText"
                        }
                    },
                    "400": {
                        "description": "Bad Request",
                        "schema": {
                            "$ref": "#/definitions/swagger.ResponseError"
                        }
                    },
                    "404": {
                        "description": "Bad Request",
                        "schema": {
                            "$ref": "#/definitions/swagger.ResponseError"
                        }
                    },
                    "500": {
                        "description": "Bad Request",
                        "schema": {
                            "$ref": "#/definitions/swagger.ResponseError"
                        }
                    }
                }
            }
        }
    },
    "definitions": {
        "swagger.ResponseError": {
            "type": "object",
            "properties": {
                "data": {
                    "type": "object"
                },
                "message": {
                    "type": "string",
                    "example": "some error message"
                },
                "success": {
                    "type": "boolean",
                    "example": false
                }
            }
        },
        "swagger.ResponseSuccessText": {
            "type": "object",
            "properties": {
                "data": {
                    "type": "string",
                    "example": "some data"
                },
                "message": {
                    "type": "string"
                },
                "success": {
                    "type": "boolean",
                    "example": true
                }
            }
        }
    }
}